{
    "1700": {
        "game_name": "Arx Fatalis",
        "download": [
            {
                "name": "Arx Libertatis",
                "url":  "https://luxtorpeda.gitlab.io/packages/arxlibertatis/",
                "file": "arxlibertatis-1700.tar.xz"
            }
        ],
        "command": "./arx",
        "information": {
            "store_link": "https://store.steampowered.com/app/1700/",
            "engine_name": "Arx Libertatis",
            "engine_link": "https://arx-libertatis.org/",
            "version": "db77aa",
            "comments": "",
            "author": "d10sfan",
            "author_link": "https://github.com/d10sfan"
        }
    },
    "1710": {
        "game_name": "Arx Fatalis (Demo)",
        "download": [
            {
                "name": "Arx Libertatis",
                "url":  "https://luxtorpeda.gitlab.io/packages/arxlibertatis/",
                "file": "arxlibertatis-1700.tar.xz"
            }
        ],
        "command": "./arx",
        "information": {
            "store_link": "https://store.steampowered.com/app/1700/",
            "engine_name": "Arx Libertatis",
            "engine_link": "https://arx-libertatis.org/",
            "version": "db77aa",
            "comments": "",
            "author": "d10sfan",
            "author_link": "https://github.com/d10sfan"
        }
    },
    "2200": {
        "game_name": "Quake III Arena",
        "download": [
            {
                "name": "ioquake3",
                "url":  "https://luxtorpeda.gitlab.io/packages/ioq3/",
                "file": "ioq3-2200.tar.xz"
            }
        ]
    },
    "2310": {
        "game_name": "Quake",
        "download": [
            {
                "name": "vkQuake",
                "url":  "https://luxtorpeda.gitlab.io/packages/vkquake/",
                "file": "vkquake-2310.tar.xz"
            },
            {
                "name": "Quake Soundtrack",
                "url":  "https://luxtorpeda.gitlab.io/files/idstuff/quake/",
                "file": "quake-campaign-soundtrack.tar.xz"
            }
        ]
    },
    "2320": {
        "game_name": "Quake II",
        "download": [
            {
                "name": "Yamagi Quake II",
                "url":  "https://luxtorpeda.gitlab.io/packages/yquake2/",
                "file": "yquake2-2320.tar.xz"
            },
            {
                "name": "Quake II Soundtrack",
                "url":  "https://luxtorpeda.gitlab.io/files/idstuff/quake2/",
                "file": "quake2-music.tar.xz"
            }
        ]
    },
    "2330": {
        "game_name": "Quake II: The Reckoning",
        "download": [
            {
                "name": "Yamagi Quake II",
                "url":  "https://luxtorpeda.gitlab.io/packages/yquake2/",
                "file": "yquake2-2320.tar.xz"
            },
            {
                "name": "The Reckoning Soundtrack",
                "url":  "https://luxtorpeda.gitlab.io/files/idstuff/quake2/",
                "file": "quake2-xatrix-music.tar.xz"
            }
        ]
    },
    "2340": {
        "game_name": "Quake II: Ground Zero",
        "download": [
            {
                "name": "Yamagi Quake II",
                "url":  "https://luxtorpeda.gitlab.io/packages/yquake2/",
                "file": "yquake2-2320.tar.xz"
            },
            {
                "name": "Ground Zero Soundtrack",
                "url":  "https://luxtorpeda.gitlab.io/files/idstuff/quake2/",
                "file": "quake2-rogue-music.tar.xz"
            }
        ]
    },
    "2350": {
        "game_name": "Quake III: Team Arena",
        "download": [
            {
                "name": "ioquake3",
                "url":  "https://luxtorpeda.gitlab.io/packages/ioq3/",
                "file": "ioq3-2350.tar.xz"
            },
            {
                "name": "Patch Data",
                "url":  "https://luxtorpeda.gitlab.io/files/idstuff/quake3/",
                "file": "quake3ta-latest-pk3s.tar.xz"
            }
        ]
    },
    "2280": {
        "game_name": "The Ultimate DOOM",
        "download": [
            {
                "name": "GZDoom",
                "url":  "https://luxtorpeda.gitlab.io/packages/gzdoom/",
                "file": "gzdoom-2280.tar.xz"
            }
        ]
    },
    "2290": {
        "game_name": "Final DOOM",
        "download": [
            {
                "name": "GZDoom",
                "url":  "https://luxtorpeda.gitlab.io/packages/gzdoom/",
                "file": "gzdoom-2290.tar.xz"
            }
        ]
    },
    "2300": {
        "game_name": "DOOM II: Hell on Earth",
        "download": [
            {
                "name": "GZDoom",
                "url":  "https://luxtorpeda.gitlab.io/packages/gzdoom/",
                "file": "gzdoom-2300.tar.xz"
            }
        ]
    },
    "2360": {
        "game_name": "HeXen: Beyond Heretic",
        "download": [
            {
                "name": "GZDoom",
                "url":  "https://luxtorpeda.gitlab.io/packages/gzdoom/",
                "file": "gzdoom-2360.tar.xz"
            }
        ]
    },
    "2390": {
        "game_name": "Heretic: Shadow of the Serpent Riders",
        "download": [
            {
                "name": "GZDoom",
                "url":  "https://luxtorpeda.gitlab.io/packages/gzdoom/",
                "file": "gzdoom-2390.tar.xz"
            }
        ]
    },
    "6020": {
        "game_name": "STAR WARS™ Jedi Knight: Jedi Academy™",
        "download": [
            {
                "name": "OpenJK",
                "url":  "https://luxtorpeda.gitlab.io/packages/openjk/",
                "file": "openjk-6020.tar.xz"
            },
            {
                "name": "EternalJK",
                "url":  "https://luxtorpeda.gitlab.io/packages/eternaljk/",
                "file": "eternaljk-6020.tar.xz"
            }
        ],
        "commands": {
            ".*jasp.exe": {
                "cmd": "./openjk_sp.x86_64"
            },
            ".*jamp.exe": {
                "cmd": "./eternaljk.x86_64"
            }
        }
    },
    "6030": {
        "game_name": "STAR WARS™ Jedi Knight II: Jedi Outcast™",
        "download": [
            {
                "name": "OpenJK",
                "url":  "https://luxtorpeda.gitlab.io/packages/openjk/",
                "file": "openjk-6030.tar.xz"
            }
        ],
        "command": "./openjo_sp.x86_64"
    },
    "7650": {
        "game_name": "X-COM: Terror from the Deep",
        "download": [
            {
                "name": "OpenXcom",
                "url":  "https://luxtorpeda.gitlab.io/packages/openxcom/",
                "file": "openxcom-7650.tar.xz"
            }
        ],
        "command": "./openxcom.sh"
    },
    "7760": {
        "game_name": "X-COM: UFO Defense",
        "download": [
            {
                "name": "OpenXcom",
                "url":  "https://luxtorpeda.gitlab.io/packages/openxcom/",
                "file": "openxcom-7760.tar.xz"
            }
        ],
        "command": "./openxcom.sh"
    },
    "9010": {
        "game_name": "Return to Castle Wolfenstein",
        "download": [
            {
                "name": "iortcw",
                "url":  "https://luxtorpeda.gitlab.io/packages/iortcw/",
                "file": "iortcw-9010.tar.xz"
            }
        ],
        "commands": {
            ".*WolfSP.exe": {
                "cmd": "./iowolfsp.x86_64",
                "args": ["+set", "com_basegame", "Main"]
            },
            ".*WolfMP.exe": {
                "cmd": "./iowolfmp.x86_64",
                "args": ["+set", "com_basegame", "Main"]
            }
        },
        "information": {
            "store_link": "https://store.steampowered.com/app/9010/",
            "engine_name": "iortcw",
            "engine_link": "https://github.com/iortcw/iortcw",
            "version": "1.51c",
            "comments": "Both SP and MP",
            "author": "d10sfan",
            "author_link": "https://github.com/d10sfan"
        }
    },
    "9050": {
        "game_name": "DOOM 3",
        "download": [
            {
                "name": "dhewm3",
                "url":  "https://luxtorpeda.gitlab.io/packages/dhewm3/",
                "file": "dhewm3-9050.tar.xz"
            }
        ],
        "command": "./dhewm3",
        "information": {
            "store_link": "https://store.steampowered.com/app/9050/",
            "engine_name": "dhewm3",
            "engine_link": "https://dhewm3.org/",
            "version": "1.5.1-PRE1",
            "comments": "",
            "author": "d10sfan",
            "author_link": "https://github.com/d10sfan"
        }
    },
    "9070": {
        "game_name": "DOOM 3: Resurrection of Evil",
        "download": [
            {
                "name": "dhewm3",
                "url":  "https://luxtorpeda.gitlab.io/packages/dhewm3/",
                "file": "dhewm3-9070.tar.xz"
            }
        ],
        "command": "./dhewm3",
        "command_args": ["+set", "fs_game", "d3xp"],
        "information": {
            "store_link": "https://store.steampowered.com/app/9070/",
            "engine_name": "dhewm3",
            "engine_link": "https://dhewm3.org/",
            "version": "1.5.1-PRE1",
            "comments": "",
            "author": "d10sfan",
            "author_link": "https://github.com/d10sfan"
        }
    },
    "9130": {
        "game_name": "Quake II Demo",
        "download": [
            {
                "name": "Yamagi Quake II",
                "url":  "https://luxtorpeda.gitlab.io/packages/yquake2/",
                "file": "yquake2-2320.tar.xz"
            }
        ]
    },
    "22320": {
        "game_name": "The Elder Scrolls III: Morrowind",
        "download": [
            {
                "name": "OpenMW",
                "url":  "https://luxtorpeda.gitlab.io/packages/openmw/",
                "file": "openmw-22320.tar.xz"
            }
        ],
        "command": "./openmw.sh",
        "information": {
            "store_link": "https://store.steampowered.com/app/22320/",
            "engine_name": "OpenMW",
            "engine_link": "https://openmw.org/",
            "version": "0.45.0",
            "comments": "Missing GUI mod launcher for now",
            "author": "d10sfan",
            "author_link": "https://github.com/d10sfan"
        }
    },
    "698780": {
        "game_name": "Doki Doki Literature Club",
        "command": "./DDLC.sh"
    },
    "517790": {
        "game_name": "Caesar 3",
        "download": [
            {
                "name": "julius",
                "url":  "https://luxtorpeda-dev.gitlab.io/packages/julius/",
                "file": "julius-517790.tar.xz"
            }
        ],
        "command": "./julius",
        "command_args": ["./C3"],
        "information": {
            "store_link": "https://store.steampowered.com/app/517790/",
            "engine_name": "julius",
            "engine_link": "https://github.com/bvschaik/julius",
            "version": "8f571ec (from master)",
            "comments": "",
            "author": "d10sfan",
            "author_link": "https://github.com/d10sfan"
        }
    },
    "39510": {
        "game_name": "Gothic 2: Gold Edition",
        "download": [
            {
                "name": "opengothic",
                "url":  "https://d10sfan.gitlab.io/luxtorpeda-opengothic/",
                "file": "opengothic-39510.tar.xz"
            }
        ],
        "command": "./run-gothic2.sh",
        "information": {
            "store_link": "https://store.steampowered.com/app/39510/Gothic_II_Gold_Edition/",
            "engine_name": "OpenGothic",
            "engine_link": "https://github.com/Try/OpenGothic",
            "version": "latest master",
            "comments": "Steam Overlay does not work. Engine is still in progress so not all features may be implemented.",
            "author": "d10sfan",
            "author_link": "https://github.com/d10sfan"
        }
    },
    "273620": {
        "game_name": "Freespace 2",
        "download": [
            {
                "name": "fs2open",
                "url":  "https://d10sfan.gitlab.io/luxtorpeda-fs2open/",
                "file": "fs2open-273620.tar.xz"
            }
        ],
        "command": "./run-freespace2.sh",
        "information": {
            "store_link": "https://store.steampowered.com/app/273620/Freespace_2/",
            "engine_name": "scp-fs2open",
            "engine_link": "https://github.com/scp-fs2open/fs2open.github.com",
            "version": "d52bddf (from master)",
            "comments": "",
            "author": "d10sfan",
            "author_link": "https://github.com/d10sfan"
        }
    },
    "208200": {
        "game_name": "Doom 3: BFG Edition",
        "download": [
            {
                "name": "doom3bfg",
                "url":  "https://d10sfan.gitlab.io/luxtorpeda-doom3bfg/",
                "file": "doom3bfg-208200.tar.xz"
            }
        ],
        "command": "./RBDoom3BFG",
        "information": {
            "store_link": "https://store.steampowered.com/app/208200/Doom_3_BFG_Edition/",
            "engine_name": "RBDOOM-3-BFG",
            "engine_link": "https://github.com/RobertBeckebans/RBDOOM-3-BFG",
            "version": "7eddea5 (from master)",
            "comments": "HDR can be a bit broken (mainly with the flashlight). Running this command (RobertBeckebans/RBDOOM-3-BFG#290 (comment)) while inside the game will fix it (and it'll save afterwards): toggle r_usehdr; reloadshaders",
            "author": "d10sfan",
            "author_link": "https://github.com/d10sfan"
        }
    },
    "3730": {
        "game_name": "Aliens versus Predator Classic",
        "download": [
            {
                "name": "AVP",
                "url":  "https://luxtorpeda-dev.gitlab.io/packages/avp/",
                "file": "avp-3730.tar.xz"
            }
        ],
        "command": "./run-avp.sh",
        "information": {
            "store_link": "https://store.steampowered.com/app/3730/Aliens_versus_Predator_Classic_2000/",
            "engine_name": "avp-forever",
            "engine_link": "https://github.com/dreamer/avp-forever",
            "version": "",
            "comments": "",
            "author": "d10sfan",
            "author_link": "https://github.com/d10sfan"
        }
    }
}
